auc90,auc95,auc99,n_targets,n_nontargets,avr_type,ar_type,pipeline_type,n_patients
0.54954,0.56312,0.587792,100.0,100.0,average_n_1_first_n_100,wyniki_AR_MP_r21_ears_200T_2folds_global_classifier,downsample,999
0.551679012346,0.566833333333,0.587843209877,90.0,90.0,average_n_1_first_n_90,wyniki_AR_MP_r21_ears_200T_2folds_global_classifier,downsample,999
0.555859375,0.5681640625,0.5970171875,80.0,80.0,average_n_1_first_n_80,wyniki_AR_MP_r21_ears_200T_2folds_global_classifier,downsample,999
0.55906122449,0.574132653061,0.610312244898,70.0,70.0,average_n_1_first_n_70,wyniki_AR_MP_r21_ears_200T_2folds_global_classifier,downsample,999
0.561944444444,0.579777777778,0.611155555556,60.0,60.0,average_n_1_first_n_60,wyniki_AR_MP_r21_ears_200T_2folds_global_classifier,downsample,999
0.56824,0.59302,0.62762,50.0,50.0,average_n_1_first_n_50,wyniki_AR_MP_r21_ears_200T_2folds_global_classifier,downsample,999
0.5790625,0.605,0.64875625,40.0,40.0,average_n_1_first_n_40,wyniki_AR_MP_r21_ears_200T_2folds_global_classifier,downsample,999
0.594,0.617833333333,0.676688888889,30.0,30.0,average_n_1_first_n_30,wyniki_AR_MP_r21_ears_200T_2folds_global_classifier,downsample,999
0.6075,0.635125,0.71,20.0,20.0,average_n_1_first_n_20,wyniki_AR_MP_r21_ears_200T_2folds_global_classifier,downsample,999
0.665,0.71,0.7802,10.0,10.0,average_n_1_first_n_10,wyniki_AR_MP_r21_ears_200T_2folds_global_classifier,downsample,999
